{
    "intoffer": {
        "GetInitOffer": true,
        "AddActivity": true,
        "SendEmail": true,
        "RejectApp": true
    },
    "intoffersel": {
        "Selectoffer": true,
        "AddActivity": true,
        "SendEmail": true,
        "RejectApp": true
    },
    "cashflow": {
        "UploadBankStatement": true,
        "AddActivity": true,
        "SendEmail": true,
        "RejectApp": true
    },
    "sociallink": {
        "InitSocialLinking": true,
        "AddActivity": true,
        "SendEmail": true,
        "RejectApp": true,
        "UploadDocs": true
    },
    "review": {
        "UpdateEditCashFlow": true,
        "GetFinalOffer": true,
        "PresentFinalOffer": true,
        "AddActivity": true,
        "SendEmail": true,
        "RejectApp": true,
        "UploadDocs": true
    },
    "finaloffer": {
        "GetFinalOffer": true,
        "AddActivity": true,
        "SendEmail": true,
        "RejectApp": true
    },
    "offeracceptance": {
        "SelectFinalOffer": true,
        "AddActivity": true,
        "SendEmail": true,
        "RejectApp": true,
        "UploadDocs": true
    },
    "pendingverification": {
        "AddActivity": true,
        "SendEmail": true,
        "RejectApp": true,
        "UploadDocs": true
    },
    "approval": {
        "UpdateAncillaryData": true,
        "AddActivity": true,
        "SendEmail": true,
        "RejectApp": true,
        "UploadDocs": true
    },
    "qa": {
        "AddActivity": true,
        "SendEmail": true,
        "RejectApp": true,
        "UploadDocs": true
    },
    "sendtobank": {
        "AddActivity": true,
        "SendEmail": true,
        "RejectApp": true,
        "UploadDocs": true
    },
    "fraudreview": {
        "UpdateHunterDetails": true,
        "AddActivity": true,
        "SendEmail": true,
        "ApproveApplication": true,
        "UploadDocs": true
    },
    "funding": {
        "UpdateFundingDetails": true,
        "AddActivity": true,
        "SendEmail": true,
        "ApproveApplication": true
    },
    "cancelled": {
        "EnableReApply": true
    },
    "expired": {
        "EnableReApply": true
    },
    "rejected": {
        "EnableReApply": true
    },
    "empveri": {
        "AddActivity": true,
        "SendEmail": true,
        "RejectApp": true,
        "UploadDocs": true
    },
    "resiveri": {
        "AddActivity": true,
        "SendEmail": true,
        "RejectApp": true,
        "UploadDocs": true
    },
    "pendocs": {
        "AddActivity": true,
        "SendEmail": true,
        "RejectApp": true,
        "UploadDocs": true
    },
    "creditreview": {
        "AddActivity": true,
        "RejectApp": true,
        "ApproveApplication": true,
        "UploadDocs": true
    },
    "rblfollowup": {
        "AddActivity": true,
        "SendEmail": true,
        "RejectApp": true,
        "UploadDocs": true
    },
    "failedSub": {
        "UpdatePersonalDetails":true,
        "UpdateAddress":true,
        "UpdateEmployment":true,
        "UpdateIncomeExpense":true,
        "UpdateBankDetails":true,
        "AddActivity": true,
        "SendEmail": true,
        "RejectApp": true
    }
}