{
	"200.01": {
		"columns": [
			{
				"data": "applicationNumber",
				"title": "Application No",
				"className": "datatabletd"
			},
			{
				"data": "submitted",
				"title": "Application Date",
				"isFunction": true,
				"render": "function(data,type,full,meta) { if (!data) {  return ''; } return moment.tz(data,window.tenant.timezone).format('MMM D,YYYY');}"
			},
			{
				"data": "applicant",
				"title": "Applicant Name",
				"className": "datatabletd"
			},
			{
				"data": "applicantPhone",
				"title": "Phone Number",
				"className": "datatabletd"
			},
			{
				"data": "amountRequested",
				"title": "Req Loan Amount",
				"isFunction": false,
				"render": "$.fn.dataTable.render.number(',', '.',0,'&#x20B9;')",
				"className": "datatabletd"
			},
			{
				"data": "applicantEmployer",
				"title": "Employer Name",
				"className": "datatabletd"
			},
			{
				"data": "expirationDate",
				"title": "Expiry Date",
				"isFunction": true,
				"render": "function(data,type,full,meta) { if (!data) {  return ''; } return moment.tz(data,window.tenant.timezone).format('MMM D,YYYY');}"
			},
			{
				"data": "sourceType",
				"title": "Soruce",
				"className": "datatabletd"
			},
			{
				"data": null,
				"isFunction": true,
				"render": "function(data,type,full,meta) { return \"<button on-click='openLoanView' class='btn btn-primary btn-xs' data-ref$='{{item.loanReferenceNumber}}' data-index$='{{index}}'>Details</button>\"}"
			}
		],
		"order": [[ 6, "desc" ]],
		"columnDefs": [
			{
				"width": "12%",
				"targets": 0
			},
			{
				"width": "15%",
				"targets": 1,
				"searchable": false
			},
			{
				"width": "15%",
				"targets": 2,
				"searchable": false
			},
			{
				"width": "12%",
				"targets": 3,
				"searchable": false
			},
			{
				"width": "15%",
				"targets": 4,
				"searchable": false
			},
			{
				"width": "15%",
				"targets": 5
			},
			{
				"width": "10%",
				"targets": 6
			},
			{
				"width": "10%",
				"targets": 7
			},
			{
				"width": "10%",
				"targets": 8
			}
		]
	},
	"200.02": {
		"columns": [
			{
				"data": "applicationNumber",
				"title": "Application No",
				"className": "datatabletd"
			},
			{
				"data": "submitted",
				"title": "Application Date",
				"isFunction": true,
				"render": "function(data,type,full,meta) { if (!data) {  return ''; } return moment.tz(data,window.tenant.timezone).format('MMM D,YYYY');}"
			},
			{
				"data": "applicant",
				"title": "Applicant Name",
				"className": "datatabletd"
			},
			{
				"data": "applicantPhone",
				"title": "Phone Number",
				"className": "datatabletd"
			},
			{
				"data": "amountRequested",
				"title": "Req Loan Amount",
				"isFunction": false,
				"render": "$.fn.dataTable.render.number(',', '.',0,'&#x20B9;')",
				"className": "datatabletd"
			},
			{
				"data": "applicantEmployer",
				"title": "Employer Name",
				"className": "datatabletd"
			},
			{
				"data": "expirationDate",
				"title": "Expiry Date",
				"isFunction": true,
				"render": "function(data,type,full,meta) { if (!data) {  return ''; } return moment.tz(data,window.tenant.timezone).format('MMM D,YYYY');}"
			},
			{
				"data": "sourceType",
				"title": "Soruce",
				"className": "datatabletd"
			},
			{
				"data": null,
				"isFunction": true,
				"render": "function(data,type,full,meta) { return \"<button on-click='openLoanView' class='btn btn-primary btn-xs' data-ref$='{{item.loanReferenceNumber}}' data-index$='{{index}}'>Details</button>\"}"
			}
		],
		"order": [[ 6, "desc" ]],
		"columnDefs": [
			{
				"width": "12%",
				"targets": 0
			},
			{
				"width": "15%",
				"targets": 1,
				"searchable": false
			},
			{
				"width": "15%",
				"targets": 2,
				"searchable": false
			},
			{
				"width": "12%",
				"targets": 3,
				"searchable": false
			},
			{
				"width": "15%",
				"targets": 4,
				"searchable": false
			},
			{
				"width": "15%",
				"targets": 5
			},
			{
				"width": "10%",
				"targets": 6
			},
			{
				"width": "10%",
				"targets": 7
			},
			{
				"width": "10%",
				"targets": 8
			}
		]
	},
	"200.03": {
		"columns": [
			{
				"data": "applicationNumber",
				"title": "Application No",
				"className": "datatabletd"
			},
			{
				"data": "submitted",
				"title": "Application Date",
				"isFunction": true,
				"render": "function(data,type,full,meta) { if (!data) {  return ''; } return moment.tz(data,window.tenant.timezone).format('MMM D,YYYY');}"
			},
			{
				"data": "applicant",
				"title": "Applicant Name",
				"className": "datatabletd"
			},
			{
				"data": "applicantPhone",
				"title": "Phone Number",
				"className": "datatabletd"
			},
			{
				"data": "initialOfferAmount",
				"title": "Initial Loan Amount",
				"isFunction": false,
				"render": "$.fn.dataTable.render.number(',', '.',0,'&#x20B9;')",
				"className": "datatabletd"
			},
			{
				"data": "applicantEmployer",
				"title": "Employer Name",
				"className": "datatabletd"
			},
			{
				"data": "expirationDate",
				"title": "Expiry Date",
				"isFunction": true,
				"render": "function(data,type,full,meta) { if (!data) {  return ''; } return moment.tz(data,window.tenant.timezone).format('MMM D,YYYY');}"
			},
			{
				"data": "sourceType",
				"title": "Soruce",
				"className": "datatabletd"
			},
			{
				"data": null,
				"isFunction": true,
				"render": "function(data,type,full,meta) { return \"<button on-click='openLoanView' class='btn btn-primary btn-xs' data-ref$='{{item.loanReferenceNumber}}' data-index$='{{index}}'>Details</button>\"}"
			}
		],
		"order": [[ 6, "desc" ]],
		"columnDefs": [
			{
				"width": "12%",
				"targets": 0
			},
			{
				"width": "15%",
				"targets": 1,
				"searchable": false
			},
			{
				"width": "15%",
				"targets": 2,
				"searchable": false
			},
			{
				"width": "12%",
				"targets": 3,
				"searchable": false
			},
			{
				"width": "15%",
				"targets": 4,
				"searchable": false
			},
			{
				"width": "15%",
				"targets": 5
			},
			{
				"width": "10%",
				"targets": 6
			},
			{
				"width": "10%",
				"targets": 7
			},
			{
				"width": "10%",
				"targets": 8
			}
		]
	},
	"200.04": {
		"columns": [],
		"order": [],
		"columnDefs": []
	},
	"200.05": {
		"columns": [
			{
				"data": "applicationNumber",
				"title": "Application No",
				"className": "datatabletd"
			},
			{
				"data": "submitted",
				"title": "Application Date",
				"isFunction": true,
				"render": "function(data,type,full,meta) { if (!data) {  return ''; } return moment.tz(data,window.tenant.timezone).format('MMM D,YYYY');}"
			},
			{
				"data": "applicant",
				"title": "Applicant Name",
				"className": "datatabletd"
			},
			{
				"data": "applicantPhone",
				"title": "Phone Number",
				"className": "datatabletd"
			},
			{
				"data": "initialOfferAmount",
				"title": "Initial Loan Amount",
				"isFunction": false,
				"render": "$.fn.dataTable.render.number(',', '.',0,'&#x20B9;')",
				"className": "datatabletd"
			},
			{
				"data": "applicantEmployer",
				"title": "Employer Name",
				"className": "datatabletd"
			},
			{
				"data": "expirationDate",
				"title": "Expiry Date",
				"isFunction": true,
				"render": "function(data,type,full,meta) { if (!data) {  return ''; } return moment.tz(data,window.tenant.timezone).format('MMM D,YYYY');}"
			},
			{
				"data": "sourceType",
				"title": "Soruce",
				"className": "datatabletd"
			},
			{
				"data": null,
				"isFunction": true,
				"render": "function(data,type,full,meta) { return \"<button on-click='openLoanView' class='btn btn-primary btn-xs' data-ref$='{{item.loanReferenceNumber}}' data-index$='{{index}}'>Details</button>\"}"
			}
		],
		"order": [[ 6, "desc" ]],
		"columnDefs": [
			{
				"width": "12%",
				"targets": 0
			},
			{
				"width": "15%",
				"targets": 1,
				"searchable": false
			},
			{
				"width": "15%",
				"targets": 2,
				"searchable": false
			},
			{
				"width": "12%",
				"targets": 3,
				"searchable": false
			},
			{
				"width": "15%",
				"targets": 4,
				"searchable": false
			},
			{
				"width": "15%",
				"targets": 5
			},
			{
				"width": "10%",
				"targets": 6
			},
			{
				"width": "10%",
				"targets": 7
			},
			{
				"width": "10%",
				"targets": 8
			}
		]
	},
	"200.06": {
		"columns": [
			{
				"data": "applicationNumber",
				"title": "Application No",
				"className": "datatabletd"
			},
			{
				"data": "submitted",
				"title": "Application Date",
				"isFunction": true,
				"render": "function(data,type,full,meta) { if (!data) {  return ''; } return moment.tz(data,window.tenant.timezone).format('MMM D,YYYY');}"
			},
			{
				"data": "applicant",
				"title": "Applicant Name",
				"className": "datatabletd"
			},
			{
				"data": "applicantPhone",
				"title": "Phone Number",
				"className": "datatabletd"
			},
			{
				"data": "initialOfferAmount",
				"title": "Initial Loan Amount",
				"isFunction": false,
				"render": "$.fn.dataTable.render.number(',', '.',0,'&#x20B9;')",
				"className": "datatabletd"
			},
			{
				"data": "applicantEmployer",
				"title": "Employer Name",
				"className": "datatabletd"
			},
			{
				"data": "expirationDate",
				"title": "Expiry Date",
				"isFunction": true,
				"render": "function(data,type,full,meta) { if (!data) {  return ''; } return moment.tz(data,window.tenant.timezone).format('MMM D,YYYY');}"
			},
			{
				"data": "sourceType",
				"title": "Soruce",
				"className": "datatabletd"
			},
			{
				"data": null,
				"isFunction": true,
				"render": "function(data,type,full,meta) { return \"<button on-click='openLoanView' class='btn btn-primary btn-xs' data-ref$='{{item.loanReferenceNumber}}' data-index$='{{index}}'>Details</button>\"}"
			}
		],
		"order": [[ 6, "desc" ]],
		"columnDefs": [
			{
				"width": "12%",
				"targets": 0
			},
			{
				"width": "15%",
				"targets": 1,
				"searchable": false
			},
			{
				"width": "15%",
				"targets": 2,
				"searchable": false
			},
			{
				"width": "12%",
				"targets": 3,
				"searchable": false
			},
			{
				"width": "15%",
				"targets": 4,
				"searchable": false
			},
			{
				"width": "15%",
				"targets": 5
			},
			{
				"width": "10%",
				"targets": 6
			},
			{
				"width": "10%",
				"targets": 7
			},
			{
				"width": "10%",
				"targets": 8
			}
		]
	},
	"200.07": {
		"columns": [
			{
				"data": "applicationNumber",
				"title": "Application No",
				"className": "datatabletd"
			},
			{
				"data": "submitted",
				"title": "Application Date",
				"isFunction": true,
				"render": "function(data,type,full,meta) { if (!data) {  return ''; } return moment.tz(data,window.tenant.timezone).format('MMM D,YYYY');}"
			},
			{
				"data": "applicant",
				"title": "Applicant Name",
				"className": "datatabletd"
			},
			{
				"data": "applicantPhone",
				"title": "Phone Number",
				"className": "datatabletd"
			},
			{
				"data": "finalOfferAmount",
				"title": "Final Loan Amount",
				"isFunction": false,
				"render": "$.fn.dataTable.render.number(',', '.',0,'&#x20B9;')",
				"className": "datatabletd"
			},
			{
				"data": "applicantEmployer",
				"title": "Employer Name",
				"className": "datatabletd"
			},
			{
				"data": null,
				"title": "Accepted Date",
				"isFunction": true,
				"render": "function(data,type,full,meta) { if (!data) {  return ''; } return moment.tz(data,window.tenant.timezone).format('MMM D,YYYY');}"
			},
			{
				"data": "sourceType",
				"title": "Soruce",
				"className": "datatabletd"
			},
			{
				"data": null,
				"isFunction": true,
				"render": "function(data,type,full,meta) { return \"<button on-click='openLoanView' class='btn btn-primary btn-xs' data-ref$='{{item.loanReferenceNumber}}' data-index$='{{index}}'>Details</button>\"}"
			}
		],
		"order": [[ 6, "desc" ]],
		"columnDefs": [
			{
				"width": "12%",
				"targets": 0
			},
			{
				"width": "15%",
				"targets": 1,
				"searchable": false
			},
			{
				"width": "15%",
				"targets": 2,
				"searchable": false
			},
			{
				"width": "12%",
				"targets": 3,
				"searchable": false
			},
			{
				"width": "15%",
				"targets": 4,
				"searchable": false
			},
			{
				"width": "15%",
				"targets": 5
			},
			{
				"width": "10%",
				"targets": 6
			},
			{
				"width": "10%",
				"targets": 7
			},
			{
				"width": "10%",
				"targets": 8
			}
		]
	},
	"200.08": {
		"columns": [
			{
				"data": "applicationNumber",
				"title": "Application No",
				"className": "datatabletd"
			},
			{
				"data": "submitted",
				"title": "Application Date",
				"isFunction": true,
				"render": "function(data,type,full,meta) { if (!data) {  return ''; } return moment.tz(data,window.tenant.timezone).format('MMM D,YYYY');}"
			},
			{
				"data": "applicant",
				"title": "Applicant Name",
				"className": "datatabletd"
			},
			{
				"data": "applicantPhone",
				"title": "Phone Number",
				"className": "datatabletd"
			},
			{
				"data": "finalOfferAmount",
				"title": "Final Loan Amount",
				"isFunction": false,
				"render": "$.fn.dataTable.render.number(',', '.',0,'&#x20B9;')",
				"className": "datatabletd"
			},
			{
				"data": "applicantEmployer",
				"title": "Employer Name",
				"className": "datatabletd"
			},
			{
				"data": null,
				"title": "Approved Date",
				"isFunction": true,
				"render": "function(data,type,full,meta) { if (!data) {  return ''; } return moment.tz(data,window.tenant.timezone).format('MMM D,YYYY');}"
			},
			{
				"data": "sourceType",
				"title": "Soruce",
				"className": "datatabletd"
			},
			{
				"data": null,
				"isFunction": true,
				"render": "function(data,type,full,meta) { return \"<button on-click='openLoanView' class='btn btn-primary btn-xs' data-ref$='{{item.loanReferenceNumber}}' data-index$='{{index}}'>Details</button>\"}"
			}
		],
		"order": [[ 6, "desc" ]],
		"columnDefs": [
			{
				"width": "12%",
				"targets": 0
			},
			{
				"width": "15%",
				"targets": 1,
				"searchable": false
			},
			{
				"width": "15%",
				"targets": 2,
				"searchable": false
			},
			{
				"width": "12%",
				"targets": 3,
				"searchable": false
			},
			{
				"width": "15%",
				"targets": 4,
				"searchable": false
			},
			{
				"width": "15%",
				"targets": 5
			},
			{
				"width": "10%",
				"targets": 6
			},
			{
				"width": "10%",
				"targets": 7
			},
			{
				"width": "10%",
				"targets": 8
			}
		]
	},
	"200.09": {
		"columns": [
			{
				"data": "applicationNumber",
				"title": "Application No",
				"className": "datatabletd"
			},
			{
				"data": "submitted",
				"title": "Application Date",
				"isFunction": true,
				"render": "function(data,type,full,meta) { if (!data) {  return ''; } return moment.tz(data,window.tenant.timezone).format('MMM D,YYYY');}"
			},
			{
				"data": "applicant",
				"title": "Applicant Name",
				"className": "datatabletd"
			},
			{
				"data": "applicantPhone",
				"title": "Phone Number",
				"className": "datatabletd"
			},
			{
				"data": "finalOfferAmount",
				"title": "Final Loan Amount",
				"isFunction": false,
				"render": "$.fn.dataTable.render.number(',', '.',0,'&#x20B9;')",
				"className": "datatabletd"
			},
			{
				"data": "applicantEmployer",
				"title": "Employer Name",
				"className": "datatabletd"
			},
			{
				"data": null,
				"title": "Approved Date",
				"isFunction": true,
				"render": "function(data,type,full,meta) { if (!data) {  return ''; } return moment.tz(data,window.tenant.timezone).format('MMM D,YYYY');}"
			},
			{
				"data": "sourceType",
				"title": "Soruce",
				"className": "datatabletd"
			},
			{
				"data": null,
				"isFunction": true,
				"render": "function(data,type,full,meta) { return \"<button on-click='openLoanView' class='btn btn-primary btn-xs' data-ref$='{{item.loanReferenceNumber}}' data-index$='{{index}}'>Details</button>\"}"
			}
		],
		"order": [[ 6, "desc" ]],
		"columnDefs": [
			{
				"width": "12%",
				"targets": 0
			},
			{
				"width": "15%",
				"targets": 1,
				"searchable": false
			},
			{
				"width": "15%",
				"targets": 2,
				"searchable": false
			},
			{
				"width": "12%",
				"targets": 3,
				"searchable": false
			},
			{
				"width": "15%",
				"targets": 4,
				"searchable": false
			},
			{
				"width": "15%",
				"targets": 5
			},
			{
				"width": "10%",
				"targets": 6
			},
			{
				"width": "10%",
				"targets": 7
			},
			{
				"width": "10%",
				"targets": 8
			}
		]
	},
	"200.10": {
		"columns": [
			{
				"data": "applicationNumber",
				"title": "Application No",
				"className": "datatabletd"
			},
			{
				"data": "submitted",
				"title": "Application Date",
				"isFunction": true,
				"render": "function(data,type,full,meta) { if (!data) {  return ''; } return moment.tz(data,window.tenant.timezone).format('MMM D,YYYY');}"
			},
			{
				"data": "applicant",
				"title": "Applicant Name",
				"className": "datatabletd"
			},
			{
				"data": "applicantPhone",
				"title": "Phone Number",
				"className": "datatabletd"
			},
			{
				"data": "finalOfferAmount",
				"title": "Final Loan Amount",
				"isFunction": false,
				"render": "$.fn.dataTable.render.number(',', '.',0,'&#x20B9;')",
				"className": "datatabletd"
			},
			{
				"data": "applicantEmployer",
				"title": "Employer Name",
				"className": "datatabletd"
			},
			{
				"data": null,
				"title": "Approved Date",
				"isFunction": true,
				"render": "function(data,type,full,meta) { if (!data) {  return ''; } return moment.tz(data,window.tenant.timezone).format('MMM D,YYYY');}"
			},
			{
				"data": "sourceType",
				"title": "Soruce",
				"className": "datatabletd"
			},
			{
				"data": null,
				"isFunction": true,
				"render": "function(data,type,full,meta) { return \"<button on-click='openLoanView' class='btn btn-primary btn-xs' data-ref$='{{item.loanReferenceNumber}}' data-index$='{{index}}'>Details</button>\"}"
			}
		],
		"order": [[ 6, "desc" ]],
		"columnDefs": [
			{
				"width": "12%",
				"targets": 0
			},
			{
				"width": "15%",
				"targets": 1,
				"searchable": false
			},
			{
				"width": "15%",
				"targets": 2,
				"searchable": false
			},
			{
				"width": "12%",
				"targets": 3,
				"searchable": false
			},
			{
				"width": "15%",
				"targets": 4,
				"searchable": false
			},
			{
				"width": "15%",
				"targets": 5
			},
			{
				"width": "10%",
				"targets": 6
			},
			{
				"width": "10%",
				"targets": 7
			},
			{
				"width": "10%",
				"targets": 8
			}
		]
	},
	"200.11": {
		"columns": [
			{
				"data": "applicationNumber",
				"title": "Application No",
				"className": "datatabletd"
			},
			{
				"data": "submitted",
				"title": "Application Date",
				"isFunction": true,
				"render": "function(data,type,full,meta) { if (!data) {  return ''; } return moment.tz(data,window.tenant.timezone).format('MMM D,YYYY');}"
			},
			{
				"data": "applicant",
				"title": "Applicant Name",
				"className": "datatabletd"
			},
			{
				"data": "applicantPhone",
				"title": "Phone Number",
				"className": "datatabletd"
			},
			{
				"data": "finalOfferAmount",
				"title": "Final Loan Amount",
				"isFunction": false,
				"render": "$.fn.dataTable.render.number(',', '.',0,'&#x20B9;')",
				"className": "datatabletd"
			},
			{
				"data": "applicantEmployer",
				"title": "Employer Name",
				"className": "datatabletd"
			},
			{
				"data": null,
				"title": "Approved Date",
				"isFunction": true,
				"render": "function(data,type,full,meta) { if (!data) {  return ''; } return moment.tz(data,window.tenant.timezone).format('MMM D,YYYY');}"
			},
			{
				"data": "sourceType",
				"title": "Soruce",
				"className": "datatabletd"
			},
			{
				"data": null,
				"isFunction": true,
				"render": "function(data,type,full,meta) { return \"<button on-click='openLoanView' class='btn btn-primary btn-xs' data-ref$='{{item.loanReferenceNumber}}' data-index$='{{index}}'>Details</button>\"}"
			}
		],
		"order": [[ 6, "desc" ]],
		"columnDefs": [
			{
				"width": "12%",
				"targets": 0
			},
			{
				"width": "15%",
				"targets": 1,
				"searchable": false
			},
			{
				"width": "15%",
				"targets": 2,
				"searchable": false
			},
			{
				"width": "12%",
				"targets": 3,
				"searchable": false
			},
			{
				"width": "15%",
				"targets": 4,
				"searchable": false
			},
			{
				"width": "15%",
				"targets": 5
			},
			{
				"width": "10%",
				"targets": 6
			},
			{
				"width": "10%",
				"targets": 7
			},
			{
				"width": "10%",
				"targets": 8
			}
		]
	},
	"200.12": {
		"columns": [
			{
				"data": "applicationNumber",
				"title": "Application No",
				"className": "datatabletd"
			},
			{
				"data": "submitted",
				"title": "Application Date",
				"isFunction": true,
				"render": "function(data,type,full,meta) { if (!data) {  return ''; } return moment.tz(data,window.tenant.timezone).format('MMM D,YYYY');}"
			},
			{
				"data": "applicant",
				"title": "Applicant Name",
				"className": "datatabletd"
			},
			{
				"data": "applicantPhone",
				"title": "Phone Number",
				"className": "datatabletd"
			},
			{
				"data": "finalOfferAmount",
				"title": "Final Loan Amount",
				"isFunction": false,
				"render": "$.fn.dataTable.render.number(',', '.',0,'&#x20B9;')",
				"className": "datatabletd"
			},
			{
				"data": "applicantEmployer",
				"title": "Employer Name",
				"className": "datatabletd"
			},
			{
				"data": null,
				"title": "Approved Date",
				"isFunction": true,
				"render": "function(data,type,full,meta) { if (!data) {  return ''; } return moment.tz(data,window.tenant.timezone).format('MMM D,YYYY');}"
			},
			{
				"data": "sourceType",
				"title": "Soruce",
				"className": "datatabletd"
			},
			{
				"data": null,
				"isFunction": true,
				"render": "function(data,type,full,meta) { return \"<button on-click='openLoanView' class='btn btn-primary btn-xs' data-ref$='{{item.loanReferenceNumber}}' data-index$='{{index}}'>Details</button>\"}"
			}
		],
		"order": [[ 6, "desc" ]],
		"columnDefs": [
			{
				"width": "12%",
				"targets": 0
			},
			{
				"width": "15%",
				"targets": 1,
				"searchable": false
			},
			{
				"width": "15%",
				"targets": 2,
				"searchable": false
			},
			{
				"width": "12%",
				"targets": 3,
				"searchable": false
			},
			{
				"width": "15%",
				"targets": 4,
				"searchable": false
			},
			{
				"width": "15%",
				"targets": 5
			},
			{
				"width": "10%",
				"targets": 6
			},
			{
				"width": "10%",
				"targets": 7
			},
			{
				"width": "10%",
				"targets": 8
			}
		]
	},
	"200.13": {
		"columns": [
			{
				"data": "applicationNumber",
				"title": "Application No",
				"className": "datatabletd"
			},
			{
				"data": "submitted",
				"title": "Application Date",
				"isFunction": true,
				"render": "function(data,type,full,meta) { if (!data) {  return ''; } return moment.tz(data,window.tenant.timezone).format('MMM D,YYYY');}"
			},
			{
				"data": "applicant",
				"title": "Applicant Name",
				"className": "datatabletd"
			},
			{
				"data": "applicantPhone",
				"title": "Phone Number",
				"className": "datatabletd"
			},
			{
				"data": "amountRequested",
				"title": "Req Loan Amount",
				"isFunction": false,
				"render": "$.fn.dataTable.render.number(',', '.',0,'&#x20B9;')",
				"className": "datatabletd"
			},
			{
				"data": null,
				"title": "Cancelled Date",
				"isFunction": true,
				"render": "function(data,type,full,meta) { if (!data) {  return ''; } return moment.tz(data,window.tenant.timezone).format('MMM D,YYYY');}"
			},
			{
				"data": "sourceType",
				"title": "Soruce",
				"className": "datatabletd"
			},
			{
				"data": null,
				"isFunction": true,
				"render": "function(data,type,full,meta) { return \"<button on-click='openLoanView' class='btn btn-primary btn-xs' data-ref$='{{item.loanReferenceNumber}}' data-index$='{{index}}'>Details</button>\"}"
			}
		],
		"order": [[ 5, "desc" ]],
		"columnDefs": [
			{
				"width": "12%",
				"targets": 0
			},
			{
				"width": "15%",
				"targets": 1,
				"searchable": false
			},
			{
				"width": "15%",
				"targets": 2,
				"searchable": false
			},
			{
				"width": "12%",
				"targets": 3,
				"searchable": false
			},
			{
				"width": "15%",
				"targets": 4,
				"searchable": false
			},
			{
				"width": "15%",
				"targets": 5
			},
			{
				"width": "10%",
				"targets": 6
			},
			{
				"width": "10%",
				"targets": 7
			}
		]
	},
	"200.14": {
		"columns": [],
		"order": [],
		"columnDefs": []
	},
	"200.15": {
		"columns": [
			{
				"data": "applicationNumber",
				"title": "Application No",
				"className": "datatabletd"
			},
			{
				"data": "submitted",
				"title": "Application Date",
				"isFunction": true,
				"render": "function(data,type,full,meta) { if (!data) {  return ''; } return moment.tz(data,window.tenant.timezone).format('MMM D,YYYY');}"
			},
			{
				"data": "applicant",
				"title": "Applicant Name",
				"className": "datatabletd"
			},
			{
				"data": "applicantPhone",
				"title": "Phone Number",
				"className": "datatabletd"
			},
			{
				"data": "amountRequested",
				"title": "Req Loan Amount",
				"isFunction": false,
				"render": "$.fn.dataTable.render.number(',', '.',0,'&#x20B9;')",
				"className": "datatabletd"
			},
			{
				"data": "applicantEmployer",
				"title": "Employer Name",
				"className": "datatabletd"
			},
			{
				"data": null,
				"title": "Expired Date",
				"isFunction": true,
				"render": "function(data,type,full,meta) { if (!data) {  return ''; } return moment.tz(data,window.tenant.timezone).format('MMM D,YYYY');}"
			},
			{
				"data": "sourceType",
				"title": "Soruce",
				"className": "datatabletd"
			},
			{
				"data": null,
				"isFunction": true,
				"render": "function(data,type,full,meta) { return \"<button on-click='openLoanView' class='btn btn-primary btn-xs' data-ref$='{{item.loanReferenceNumber}}' data-index$='{{index}}'>Details</button>\"}"
			}
		],
		"order": [[ 6, "desc" ]],
		"columnDefs": [
			{
				"width": "12%",
				"targets": 0
			},
			{
				"width": "15%",
				"targets": 1,
				"searchable": false
			},
			{
				"width": "15%",
				"targets": 2,
				"searchable": false
			},
			{
				"width": "12%",
				"targets": 3,
				"searchable": false
			},
			{
				"width": "15%",
				"targets": 4,
				"searchable": false
			},
			{
				"width": "15%",
				"targets": 5
			},
			{
				"width": "10%",
				"targets": 6
			},
			{
				"width": "10%",
				"targets": 7
			},
			{
				"width": "10%",
				"targets": 8
			}
		]
	},
	"200.16": {
		"columns": [
			{
				"data": "applicationNumber",
				"title": "Application No",
				"className": "datatabletd"
			},
			{
				"data": "submitted",
				"title": "Application Date",
				"isFunction": true,
				"render": "function(data,type,full,meta) { if (!data) {  return ''; } return moment.tz(data,window.tenant.timezone).format('MMM D,YYYY');}"
			},
			{
				"data": "applicant",
				"title": "Applicant Name",
				"className": "datatabletd"
			},
			{
				"data": "applicantPhone",
				"title": "Phone Number",
				"className": "datatabletd"
			},
			{
				"data": "amountRequested",
				"title": "Req Loan Amount",
				"isFunction": false,
				"render": "$.fn.dataTable.render.number(',', '.',0,'&#x20B9;')",
				"className": "datatabletd"
			},
			{
				"data": null,
				"title": "Rejected Date",
				"isFunction": true,
				"render": "function(data,type,full,meta) { if (!data) {  return ''; } return moment.tz(data,window.tenant.timezone).format('MMM D,YYYY');}"
			},
			{
				"data": "sourceType",
				"title": "Soruce",
				"className": "datatabletd"
			},
			{
				"data": null,
				"isFunction": true,
				"render": "function(data,type,full,meta) { return \"<button on-click='openLoanView' class='btn btn-primary btn-xs' data-ref$='{{item.loanReferenceNumber}}' data-index$='{{index}}'>Details</button>\"}"
			}
		],
		"order": [[ 5, "desc" ]],
		"columnDefs": [
			{
				"width": "12%",
				"targets": 0
			},
			{
				"width": "15%",
				"targets": 1,
				"searchable": false
			},
			{
				"width": "15%",
				"targets": 2,
				"searchable": false
			},
			{
				"width": "12%",
				"targets": 3,
				"searchable": false
			},
			{
				"width": "15%",
				"targets": 4,
				"searchable": false
			},
			{
				"width": "15%",
				"targets": 5
			},
			{
				"width": "10%",
				"targets": 6
			},
			{
				"width": "10%",
				"targets": 7
			}
		]
	},
	"200.17": {
		"columns": [],
		"order": [],
		"columnDefs": []
	},
	"200.18": {
		"columns": [
			{
				"data": "applicationNumber",
				"title": "Application No",
				"className": "datatabletd"
			},
			{
				"data": "submitted",
				"title": "Application Date",
				"isFunction": true,
				"render": "function(data,type,full,meta) { if (!data) {  return ''; } return moment.tz(data,window.tenant.timezone).format('MMM D,YYYY');}"
			},
			{
				"data": "applicant",
				"title": "Applicant Name",
				"className": "datatabletd"
			},
			{
				"data": "applicantPhone",
				"title": "Phone Number",
				"className": "datatabletd"
			},
			{
				"data": "amountRequested",
				"title": "Req Loan Amount",
				"isFunction": false,
				"render": "$.fn.dataTable.render.number(',', '.',0,'&#x20B9;')",
				"className": "datatabletd"
			},
			{
				"data": "applicantEmployer",
				"title": "Employer Name",
				"className": "datatabletd"
			},
			{
				"data": null,
				"title": "Expired Date",
				"isFunction": true,
				"render": "function(data,type,full,meta) { if (!data) {  return ''; } return moment.tz(data,window.tenant.timezone).format('MMM D,YYYY');}"
			},
			{
				"data": "sourceType",
				"title": "Soruce",
				"className": "datatabletd"
			},
			{
				"data": null,
				"isFunction": true,
				"render": "function(data,type,full,meta) { return \"<button on-click='openLoanView' class='btn btn-primary btn-xs' data-ref$='{{item.loanReferenceNumber}}' data-index$='{{index}}'>Details</button>\"}"
			}
		],
		"order": [[ 6, "desc" ]],
		"columnDefs": [
			{
				"width": "12%",
				"targets": 0
			},
			{
				"width": "15%",
				"targets": 1,
				"searchable": false
			},
			{
				"width": "15%",
				"targets": 2,
				"searchable": false
			},
			{
				"width": "12%",
				"targets": 3,
				"searchable": false
			},
			{
				"width": "15%",
				"targets": 4,
				"searchable": false
			},
			{
				"width": "15%",
				"targets": 5
			},
			{
				"width": "10%",
				"targets": 6
			},
			{
				"width": "10%",
				"targets": 7
			},
			{
				"width": "10%",
				"targets": 8
			}
		]
	},
	"200.19": {
		"columns": [
			{
				"data": "applicationNumber",
				"title": "Application No",
				"className": "datatabletd"
			},
			{
				"data": "submitted",
				"title": "Application Date",
				"isFunction": true,
				"render": "function(data,type,full,meta) { if (!data) {  return ''; } return moment.tz(data,window.tenant.timezone).format('MMM D,YYYY');}"
			},
			{
				"data": "applicant",
				"title": "Applicant Name",
				"className": "datatabletd"
			},
			{
				"data": "applicantPhone",
				"title": "Phone Number",
				"className": "datatabletd"
			},
			{
				"data": "amountRequested",
				"title": "Req Loan Amount",
				"isFunction": false,
				"render": "$.fn.dataTable.render.number(',', '.',0,'&#x20B9;')",
				"className": "datatabletd"
			},
			{
				"data": null,
				"title": "Rejected Date",
				"isFunction": true,
				"render": "function(data,type,full,meta) { if (!data) {  return ''; } return moment.tz(data,window.tenant.timezone).format('MMM D,YYYY');}"
			},
			{
				"data": "sourceType",
				"title": "Soruce",
				"className": "datatabletd"
			},
			{
				"data": null,
				"isFunction": true,
				"render": "function(data,type,full,meta) { return \"<button on-click='openLoanView' class='btn btn-primary btn-xs' data-ref$='{{item.loanReferenceNumber}}' data-index$='{{index}}'>Details</button>\"}"
			}
		],
		"order": [[ 5, "desc" ]],
		"columnDefs": [
			{
				"width": "12%",
				"targets": 0
			},
			{
				"width": "15%",
				"targets": 1,
				"searchable": false
			},
			{
				"width": "15%",
				"targets": 2,
				"searchable": false
			},
			{
				"width": "12%",
				"targets": 3,
				"searchable": false
			},
			{
				"width": "15%",
				"targets": 4,
				"searchable": false
			},
			{
				"width": "15%",
				"targets": 5
			},
			{
				"width": "10%",
				"targets": 6
			},
			{
				"width": "10%",
				"targets": 7
			}
		]
	},
	"Bank Pending": {
		"columns": [
			{
				"data": "applicationNumber",
				"title": "Application No",
				"className": "datatabletd"
			},
			{
				"data": "submitted",
				"title": "Application Date",
				"isFunction": true,
				"render": "function(data,type,full,meta) { if (!data) {  return ''; } return moment.tz(data,window.tenant.timezone).format('MMM D,YYYY');}"
			},
			{
				"data": "applicant",
				"title": "Applicant Name",
				"className": "datatabletd"
			},
			{
				"data": "applicantPhone",
				"title": "Phone Number",
				"className": "datatabletd"
			},
			{
				"data": "initialOfferAmount",
				"title": "Initial Loan Amount",
				"isFunction": false,
				"render": "$.fn.dataTable.render.number(',', '.',0,'&#x20B9;')",
				"className": "datatabletd"
			},
			{
				"data": "applicantEmployer",
				"title": "Employer Name",
				"className": "datatabletd"
			},
			{
				"data": "expirationDate",
				"title": "Expiry Date",
				"isFunction": true,
				"render": "function(data,type,full,meta) { if (!data) {  return ''; } return moment.tz(data,window.tenant.timezone).format('MMM D,YYYY');}"
			},
			{
				"data": "sourceType",
				"title": "Soruce",
				"className": "datatabletd"
			},
			{
				"data": null,
				"isFunction": true,
				"render": "function(data,type,full,meta) { return \"<button on-click='openLoanView' class='btn btn-primary btn-xs' data-ref$='{{item.loanReferenceNumber}}' data-index$='{{index}}'>Details</button>\"}"
			}
		],
		"order": [[ 6, "desc" ]],
		"columnDefs": [
			{
				"width": "12%",
				"targets": 0
			},
			{
				"width": "15%",
				"targets": 1,
				"searchable": false
			},
			{
				"width": "15%",
				"targets": 2,
				"searchable": false
			},
			{
				"width": "12%",
				"targets": 3,
				"searchable": false
			},
			{
				"width": "15%",
				"targets": 4,
				"searchable": false
			},
			{
				"width": "15%",
				"targets": 5
			},
			{
				"width": "10%",
				"targets": 6
			},
			{
				"width": "10%",
				"targets": 7
			},
			{
				"width": "10%",
				"targets": 8
			}
		]
	},
	"Social Pending": {
		"columns": [
			{
				"data": "applicationNumber",
				"title": "Application No",
				"className": "datatabletd"
			},
			{
				"data": "submitted",
				"title": "Application Date",
				"isFunction": true,
				"render": "function(data,type,full,meta) { if (!data) {  return ''; } return moment.tz(data,window.tenant.timezone).format('MMM D,YYYY');}"
			},
			{
				"data": "applicant",
				"title": "Applicant Name",
				"className": "datatabletd"
			},
			{
				"data": "applicantPhone",
				"title": "Phone Number",
				"className": "datatabletd"
			},
			{
				"data": "initialOfferAmount",
				"title": "Initial Loan Amount",
				"isFunction": false,
				"render": "$.fn.dataTable.render.number(',', '.',0,'&#x20B9;')",
				"className": "datatabletd"
			},
			{
				"data": "applicantEmployer",
				"title": "Employer Name",
				"className": "datatabletd"
			},
			{
				"data": "expirationDate",
				"title": "Expiry Date",
				"isFunction": true,
				"render": "function(data,type,full,meta) { if (!data) {  return ''; } return moment.tz(data,window.tenant.timezone).format('MMM D,YYYY');}"
			},
			{
				"data": "sourceType",
				"title": "Soruce",
				"className": "datatabletd"
			},
			{
				"data": null,
				"isFunction": true,
				"render": "function(data,type,full,meta) { return \"<button on-click='openLoanView' class='btn btn-primary btn-xs' data-ref$='{{item.loanReferenceNumber}}' data-index$='{{index}}'>Details</button>\"}"
			}
		],
		"order": [[ 6, "desc" ]],
		"columnDefs": [
			{
				"width": "12%",
				"targets": 0
			},
			{
				"width": "15%",
				"targets": 1,
				"searchable": false
			},
			{
				"width": "15%",
				"targets": 2,
				"searchable": false
			},
			{
				"width": "12%",
				"targets": 3,
				"searchable": false
			},
			{
				"width": "15%",
				"targets": 4,
				"searchable": false
			},
			{
				"width": "15%",
				"targets": 5
			},
			{
				"width": "10%",
				"targets": 6
			},
			{
				"width": "10%",
				"targets": 7
			},
			{
				"width": "10%",
				"targets": 8
			}
		]
	},
	"Employment Pending": {
		"columns": [
			{
				"data": "applicationNumber",
				"title": "Application No",
				"className": "datatabletd"
			},
			{
				"data": "submitted",
				"title": "Application Date",
				"isFunction": true,
				"render": "function(data,type,full,meta) { if (!data) {  return ''; } return moment.tz(data,window.tenant.timezone).format('MMM D,YYYY');}"
			},
			{
				"data": "applicant",
				"title": "Applicant Name",
				"className": "datatabletd"
			},
			{
				"data": "applicantPhone",
				"title": "Phone Number",
				"className": "datatabletd"
			},
			{
				"data": "finalOfferAmount",
				"title": "Final Loan Amount",
				"isFunction": false,
				"render": "$.fn.dataTable.render.number(',', '.',0,'&#x20B9;')",
				"className": "datatabletd"
			},
			{
				"data": "applicantEmployer",
				"title": "Employer Name",
				"className": "datatabletd"
			},
			{
				"data": null,
				"title": "Accepted Date",
				"isFunction": true,
				"render": "function(data,type,full,meta) { if (!data) {  return ''; } return moment.tz(data,window.tenant.timezone).format('MMM D,YYYY');}"
			},
			{
				"data": "sourceType",
				"title": "Soruce",
				"className": "datatabletd"
			},
			{
				"data": null,
				"isFunction": true,
				"render": "function(data,type,full,meta) { return \"<button on-click='openLoanView' class='btn btn-primary btn-xs' data-ref$='{{item.loanReferenceNumber}}' data-index$='{{index}}'>Details</button>\"}"
			}
		],
		"order": [[ 6, "desc" ]],
		"columnDefs": [
			{
				"width": "12%",
				"targets": 0
			},
			{
				"width": "15%",
				"targets": 1,
				"searchable": false
			},
			{
				"width": "15%",
				"targets": 2,
				"searchable": false
			},
			{
				"width": "12%",
				"targets": 3,
				"searchable": false
			},
			{
				"width": "15%",
				"targets": 4,
				"searchable": false
			},
			{
				"width": "15%",
				"targets": 5
			},
			{
				"width": "10%",
				"targets": 6
			},
			{
				"width": "10%",
				"targets": 7
			},
			{
				"width": "10%",
				"targets": 8
			}
		]
	},
	"Residence Pending": {
		"columns": [
			{
				"data": "applicationNumber",
				"title": "Application No",
				"className": "datatabletd"
			},
			{
				"data": "submitted",
				"title": "Application Date",
				"isFunction": true,
				"render": "function(data,type,full,meta) { if (!data) {  return ''; } return moment.tz(data,window.tenant.timezone).format('MMM D,YYYY');}"
			},
			{
				"data": "applicant",
				"title": "Applicant Name",
				"className": "datatabletd"
			},
			{
				"data": "applicantPhone",
				"title": "Phone Number",
				"className": "datatabletd"
			},
			{
				"data": "finalOfferAmount",
				"title": "Final Loan Amount",
				"isFunction": false,
				"render": "$.fn.dataTable.render.number(',', '.',0,'&#x20B9;')",
				"className": "datatabletd"
			},
			{
				"data": "applicantEmployer",
				"title": "Employer Name",
				"className": "datatabletd"
			},
			{
				"data": null,
				"title": "Accepted Date",
				"isFunction": true,
				"render": "function(data,type,full,meta) { if (!data) {  return ''; } return moment.tz(data,window.tenant.timezone).format('MMM D,YYYY');}"
			},
			{
				"data": "sourceType",
				"title": "Soruce",
				"className": "datatabletd"
			},
			{
				"data": null,
				"isFunction": true,
				"render": "function(data,type,full,meta) { return \"<button on-click='openLoanView' class='btn btn-primary btn-xs' data-ref$='{{item.loanReferenceNumber}}' data-index$='{{index}}'>Details</button>\"}"
			}
		],
		"order": [[ 6, "desc" ]],
		"columnDefs": [
			{
				"width": "12%",
				"targets": 0
			},
			{
				"width": "15%",
				"targets": 1,
				"searchable": false
			},
			{
				"width": "15%",
				"targets": 2,
				"searchable": false
			},
			{
				"width": "12%",
				"targets": 3,
				"searchable": false
			},
			{
				"width": "15%",
				"targets": 4,
				"searchable": false
			},
			{
				"width": "15%",
				"targets": 5
			},
			{
				"width": "10%",
				"targets": 6
			},
			{
				"width": "10%",
				"targets": 7
			},
			{
				"width": "10%",
				"targets": 8
			}
		]
	},
	"Pending Documents": {
		"columns": [
			{
				"data": "applicationNumber",
				"title": "Application No",
				"className": "datatabletd"
			},
			{
				"data": "submitted",
				"title": "Application Date",
				"isFunction": true,
				"render": "function(data,type,full,meta) { if (!data) {  return ''; } return moment.tz(data,window.tenant.timezone).format('MMM D,YYYY');}"
			},
			{
				"data": "applicant",
				"title": "Applicant Name",
				"className": "datatabletd"
			},
			{
				"data": "applicantPhone",
				"title": "Phone Number",
				"className": "datatabletd"
			},
			{
				"data": "finalOfferAmount",
				"title": "Final Loan Amount",
				"isFunction": false,
				"render": "$.fn.dataTable.render.number(',', '.',0,'&#x20B9;')",
				"className": "datatabletd"
			},
			{
				"data": "applicantEmployer",
				"title": "Employer Name",
				"className": "datatabletd"
			},
			{
				"data": null,
				"title": "Accepted Date",
				"isFunction": true,
				"render": "function(data,type,full,meta) { if (!data) {  return ''; } return moment.tz(data,window.tenant.timezone).format('MMM D,YYYY');}"
			},
			{
				"data": "sourceType",
				"title": "Soruce",
				"className": "datatabletd"
			},
			{
				"data": null,
				"isFunction": true,
				"render": "function(data,type,full,meta) { return \"<button on-click='openLoanView' class='btn btn-primary btn-xs' data-ref$='{{item.loanReferenceNumber}}' data-index$='{{index}}'>Details</button>\"}"
			}
		],
		"order": [[ 6, "desc" ]],
		"columnDefs": [
			{
				"width": "12%",
				"targets": 0
			},
			{
				"width": "15%",
				"targets": 1,
				"searchable": false
			},
			{
				"width": "15%",
				"targets": 2,
				"searchable": false
			},
			{
				"width": "12%",
				"targets": 3,
				"searchable": false
			},
			{
				"width": "15%",
				"targets": 4,
				"searchable": false
			},
			{
				"width": "15%",
				"targets": 5
			},
			{
				"width": "10%",
				"targets": 6
			},
			{
				"width": "10%",
				"targets": 7
			},
			{
				"width": "10%",
				"targets": 8
			}
		]
	},
	"RBL Followup": {
		"columns": [
			{
				"data": "applicationNumber",
				"title": "Application No",
				"className": "datatabletd"
			},
			{
				"data": "submitted",
				"title": "Application Date",
				"isFunction": true,
				"render": "function(data,type,full,meta) { if (!data) {  return ''; } return moment.tz(data,window.tenant.timezone).format('MMM D,YYYY');}"
			},
			{
				"data": "applicant",
				"title": "Applicant Name",
				"className": "datatabletd"
			},
			{
				"data": "applicantPhone",
				"title": "Phone Number",
				"className": "datatabletd"
			},
			{
				"data": "finalOfferAmount",
				"title": "Final Loan Amount",
				"isFunction": false,
				"render": "$.fn.dataTable.render.number(',', '.',0,'&#x20B9;')",
				"className": "datatabletd"
			},
			{
				"data": "applicantEmployer",
				"title": "Employer Name",
				"className": "datatabletd"
			},
			{
				"data": null,
				"title": "Accepted Date",
				"isFunction": true,
				"render": "function(data,type,full,meta) { if (!data) {  return ''; } return moment.tz(data,window.tenant.timezone).format('MMM D,YYYY');}"
			},
			{
				"data": "sourceType",
				"title": "Soruce",
				"className": "datatabletd"
			},
			{
				"data": null,
				"isFunction": true,
				"render": "function(data,type,full,meta) { return \"<button on-click='openLoanView' class='btn btn-primary btn-xs' data-ref$='{{item.loanReferenceNumber}}' data-index$='{{index}}'>Details</button>\"}"
			}
		],
		"order": [[ 6, "desc" ]],
		"columnDefs": [
			{
				"width": "12%",
				"targets": 0
			},
			{
				"width": "15%",
				"targets": 1,
				"searchable": false
			},
			{
				"width": "15%",
				"targets": 2,
				"searchable": false
			},
			{
				"width": "12%",
				"targets": 3,
				"searchable": false
			},
			{
				"width": "15%",
				"targets": 4,
				"searchable": false
			},
			{
				"width": "15%",
				"targets": 5
			},
			{
				"width": "10%",
				"targets": 6
			},
			{
				"width": "10%",
				"targets": 7
			},
			{
				"width": "10%",
				"targets": 8
			}
		]
	}
}
